{
    "global": {
        "check_for_updates_on_startup": true,
        "show_in_menu_bar": true,
        "show_profile_name_in_menu_bar": false
    },
    "profiles": [
        {
            "complex_modifications": {
                "parameters": {
                    "basic.simultaneous_threshold_milliseconds": 50,
                    "basic.to_delayed_action_delay_milliseconds": 500,
                    "basic.to_if_alone_timeout_milliseconds": 1000,
                    "basic.to_if_held_down_threshold_milliseconds": 500,
                    "mouse_motion_to_scroll.speed": 100
                },
                "rules": [
                    {
                        "description": "Change Fn + h/j/k/l to Arrows",
                        "manipulators": [
                            {
                                "from": {
                                    "key_code": "h",
                                    "modifiers": {
                                        "mandatory": [
                                            "fn"
                                        ],
                                        "optional": [
                                            "caps_lock"
                                        ]
                                    }
                                },
                                "to": [
                                    {
                                        "key_code": "left_arrow"
                                    }
                                ],
                                "type": "basic"
                            },
                            {
                                "from": {
                                    "key_code": "j",
                                    "modifiers": {
                                        "mandatory": [
                                            "fn"
                                        ],
                                        "optional": [
                                            "caps_lock"
                                        ]
                                    }
                                },
                                "to": [
                                    {
                                        "key_code": "down_arrow"
                                    }
                                ],
                                "type": "basic"
                            },
                            {
                                "from": {
                                    "key_code": "k",
                                    "modifiers": {
                                        "mandatory": [
                                            "fn"
                                        ],
                                        "optional": [
                                            "caps_lock"
                                        ]
                                    }
                                },
                                "to": [
                                    {
                                        "key_code": "up_arrow"
                                    }
                                ],
                                "type": "basic"
                            },
                            {
                                "from": {
                                    "key_code": "l",
                                    "modifiers": {
                                        "mandatory": [
                                            "fn"
                                        ],
                                        "optional": [
                                            "caps_lock"
                                        ]
                                    }
                                },
                                "to": [
                                    {
                                        "key_code": "right_arrow"
                                    }
                                ],
                                "type": "basic"
                            }
                        ]
                    },
                    {
                        "description": "Change spacebar to left_shift. (Post spacebar if pressed alone)",
                        "manipulators": [
                            {
                                "from": {
                                    "key_code": "spacebar",
                                    "modifiers": {
                                        "optional": [
                                            "any"
                                        ]
                                    }
                                },
                                "to": [
                                    {
                                        "key_code": "left_shift"
                                    }
                                ],
                                "to_if_alone": [
                                    {
                                        "key_code": "spacebar"
                                    }
                                ],
                                "type": "basic"
                            }
                        ]
                    },
                    {
                        "description": "Double tab and hold left_command to become left_control. Once released, returns to left_command. Tripple tap and hold for left_command + left_control",
                        "manipulators": [
                            {
                                "conditions": [
                                    {
                                        "name": "left_command pressed",
                                        "type": "variable_if",
                                        "value": 2
                                    }
                                ],
                                "from": {
                                    "key_code": "left_command",
                                    "modifiers": {
                                        "optional": [
                                            "any"
                                        ]
                                    }
                                },
                                "to": [
                                    {
                                        "set_variable": {
                                            "name": "debug left",
                                            "value": 2
                                        }
                                    },
                                    {
                                        "key_code": "left_command",
                                        "modifiers": [
                                            "left_control"
                                        ]
                                    }
                                ],
                                "to_delayed_action": {
                                    "to_if_canceled": [
                                        {
                                            "set_variable": {
                                                "name": "left_command pressed",
                                                "value": 0
                                            }
                                        }
                                    ],
                                    "to_if_invoked": [
                                        {
                                            "set_variable": {
                                                "name": "left_command pressed",
                                                "value": 0
                                            }
                                        }
                                    ]
                                },
                                "type": "basic"
                            },
                            {
                                "conditions": [
                                    {
                                        "name": "left_command pressed",
                                        "type": "variable_if",
                                        "value": 1
                                    }
                                ],
                                "from": {
                                    "key_code": "left_command",
                                    "modifiers": {
                                        "optional": [
                                            "any"
                                        ]
                                    }
                                },
                                "to": [
                                    {
                                        "set_variable": {
                                            "name": "debug left",
                                            "value": 1
                                        }
                                    },
                                    {
                                        "set_variable": {
                                            "name": "left_command pressed",
                                            "value": 2
                                        }
                                    },
                                    {
                                        "key_code": "left_control"
                                    }
                                ],
                                "to_delayed_action": {
                                    "to_if_canceled": [
                                        {
                                            "set_variable": {
                                                "name": "left_command pressed",
                                                "value": 0
                                            }
                                        }
                                    ],
                                    "to_if_invoked": [
                                        {
                                            "set_variable": {
                                                "name": "left_command pressed",
                                                "value": 0
                                            }
                                        }
                                    ]
                                },
                                "type": "basic"
                            },
                            {
                                "from": {
                                    "key_code": "left_command",
                                    "modifiers": {
                                        "optional": [
                                            "any"
                                        ]
                                    }
                                },
                                "to": [
                                    {
                                        "set_variable": {
                                            "name": "debug left",
                                            "value": 0
                                        }
                                    },
                                    {
                                        "set_variable": {
                                            "name": "left_command pressed",
                                            "value": 1
                                        }
                                    },
                                    {
                                        "key_code": "left_command"
                                    }
                                ],
                                "to_delayed_action": {
                                    "to_if_invoked": [
                                        {
                                            "set_variable": {
                                                "name": "left_command pressed",
                                                "value": 0
                                            }
                                        }
                                    ]
                                },
                                "type": "basic"
                            }
                        ]
                    },
                    {
                        "description": "Double tab and hold right_command to become right_option. Once released, returns to right_command. Tripple tap for right_option + right_command",
                        "manipulators": [
                            {
                                "conditions": [
                                    {
                                        "name": "right_command pressed",
                                        "type": "variable_if",
                                        "value": 2
                                    }
                                ],
                                "from": {
                                    "key_code": "right_command",
                                    "modifiers": {
                                        "optional": [
                                            "any"
                                        ]
                                    }
                                },
                                "to": [
                                    {
                                        "set_variable": {
                                            "name": "debug right",
                                            "value": 2
                                        }
                                    },
                                    {
                                        "key_code": "right_option",
                                        "modifiers": [
                                            "left_option"
                                        ]
                                    }
                                ],
                                "to_delayed_action": {
                                    "to_if_canceled": [
                                        {
                                            "set_variable": {
                                                "name": "right_command pressed",
                                                "value": 0
                                            }
                                        }
                                    ],
                                    "to_if_invoked": [
                                        {
                                            "set_variable": {
                                                "name": "right_command pressed",
                                                "value": 0
                                            }
                                        }
                                    ]
                                },
                                "type": "basic"
                            },
                            {
                                "conditions": [
                                    {
                                        "name": "right_command pressed",
                                        "type": "variable_if",
                                        "value": 1
                                    }
                                ],
                                "from": {
                                    "key_code": "right_command",
                                    "modifiers": {
                                        "optional": [
                                            "any"
                                        ]
                                    }
                                },
                                "to": [
                                    {
                                        "set_variable": {
                                            "name": "debug right",
                                            "value": 1
                                        }
                                    },
                                    {
                                        "set_variable": {
                                            "name": "right_command pressed",
                                            "value": 2
                                        }
                                    },
                                    {
                                        "key_code": "left_option"
                                    }
                                ],
                                "to_delayed_action": {
                                    "to_if_canceled": [
                                        {
                                            "set_variable": {
                                                "name": "right_command pressed",
                                                "value": 0
                                            }
                                        }
                                    ],
                                    "to_if_invoked": [
                                        {
                                            "set_variable": {
                                                "name": "right_command pressed",
                                                "value": 0
                                            }
                                        }
                                    ]
                                },
                                "type": "basic"
                            },
                            {
                                "from": {
                                    "key_code": "right_command",
                                    "modifiers": {
                                        "optional": [
                                            "any"
                                        ]
                                    }
                                },
                                "to": [
                                    {
                                        "set_variable": {
                                            "name": "debug right",
                                            "value": 0
                                        }
                                    },
                                    {
                                        "set_variable": {
                                            "name": "right_command pressed",
                                            "value": 1
                                        }
                                    },
                                    {
                                        "key_code": "right_option"
                                    }
                                ],
                                "to_delayed_action": {
                                    "to_if_invoked": [
                                        {
                                            "set_variable": {
                                                "name": "right_command pressed",
                                                "value": 0
                                            }
                                        }
                                    ]
                                },
                                "type": "basic"
                            }
                        ]
                    }
                ]
            },
            "devices": [
                {
                    "disable_built_in_keyboard_if_exists": false,
                    "fn_function_keys": [],
                    "identifiers": {
                        "is_keyboard": true,
                        "is_pointing_device": false,
                        "product_id": 2311,
                        "vendor_id": 7847
                    },
                    "ignore": false,
                    "manipulate_caps_lock_led": true,
                    "simple_modifications": [
                        {
                            "from": {
                                "key_code": "left_command"
                            },
                            "to": [
                                {
                                    "key_code": "left_option"
                                }
                            ]
                        },
                        {
                            "from": {
                                "key_code": "left_option"
                            },
                            "to": [
                                {
                                    "key_code": "left_command"
                                }
                            ]
                        }
                    ]
                },
                {
                    "disable_built_in_keyboard_if_exists": false,
                    "fn_function_keys": [],
                    "identifiers": {
                        "is_keyboard": true,
                        "is_pointing_device": false,
                        "product_id": 832,
                        "vendor_id": 1452
                    },
                    "ignore": false,
                    "manipulate_caps_lock_led": true,
                    "simple_modifications": [
                        {
                            "from": {
                                "key_code": "left_control"
                            },
                            "to": [
                                {
                                    "key_code": "vk_none"
                                }
                            ]
                        },
                        {
                            "from": {
                                "key_code": "left_option"
                            },
                            "to": [
                                {
                                    "key_code": "vk_none"
                                }
                            ]
                        }
                    ]
                },
                {
                    "disable_built_in_keyboard_if_exists": false,
                    "fn_function_keys": [],
                    "identifiers": {
                        "is_keyboard": true,
                        "is_pointing_device": false,
                        "product_id": 8453,
                        "vendor_id": 16700
                    },
                    "ignore": false,
                    "manipulate_caps_lock_led": true,
                    "simple_modifications": [
                        {
                            "from": {
                                "key_code": "left_command"
                            },
                            "to": [
                                {
                                    "key_code": "left_option"
                                }
                            ]
                        },
                        {
                            "from": {
                                "key_code": "left_option"
                            },
                            "to": [
                                {
                                    "key_code": "left_command"
                                }
                            ]
                        }
                    ]
                },
                {
                    "disable_built_in_keyboard_if_exists": false,
                    "fn_function_keys": [],
                    "identifiers": {
                        "is_keyboard": true,
                        "is_pointing_device": false,
                        "product_id": 49958,
                        "vendor_id": 1133
                    },
                    "ignore": false,
                    "manipulate_caps_lock_led": true,
                    "simple_modifications": [
                        {
                            "from": {
                                "key_code": "left_command"
                            },
                            "to": [
                                {
                                    "key_code": "left_option"
                                }
                            ]
                        },
                        {
                            "from": {
                                "key_code": "left_option"
                            },
                            "to": [
                                {
                                    "key_code": "left_command"
                                }
                            ]
                        }
                    ]
                },
                {
                    "disable_built_in_keyboard_if_exists": false,
                    "fn_function_keys": [],
                    "identifiers": {
                        "is_keyboard": true,
                        "is_pointing_device": false,
                        "product_id": 34304,
                        "vendor_id": 1452
                    },
                    "ignore": false,
                    "manipulate_caps_lock_led": true,
                    "simple_modifications": []
                }
            ],
            "fn_function_keys": [
                {
                    "from": {
                        "key_code": "f1"
                    },
                    "to": [
                        {
                            "key_code": "f1"
                        }
                    ]
                },
                {
                    "from": {
                        "key_code": "f2"
                    },
                    "to": [
                        {
                            "key_code": "f2"
                        }
                    ]
                },
                {
                    "from": {
                        "key_code": "f3"
                    },
                    "to": [
                        {
                            "key_code": "f3"
                        }
                    ]
                },
                {
                    "from": {
                        "key_code": "f4"
                    },
                    "to": [
                        {
                            "key_code": "f4"
                        }
                    ]
                },
                {
                    "from": {
                        "key_code": "f5"
                    },
                    "to": [
                        {
                            "key_code": "f5"
                        }
                    ]
                },
                {
                    "from": {
                        "key_code": "f6"
                    },
                    "to": [
                        {
                            "key_code": "f6"
                        }
                    ]
                },
                {
                    "from": {
                        "key_code": "f7"
                    },
                    "to": [
                        {
                            "key_code": "f7"
                        }
                    ]
                },
                {
                    "from": {
                        "key_code": "f8"
                    },
                    "to": [
                        {
                            "key_code": "f8"
                        }
                    ]
                },
                {
                    "from": {
                        "key_code": "f9"
                    },
                    "to": [
                        {
                            "key_code": "f9"
                        }
                    ]
                },
                {
                    "from": {
                        "key_code": "f10"
                    },
                    "to": [
                        {
                            "key_code": "f10"
                        }
                    ]
                },
                {
                    "from": {
                        "key_code": "f11"
                    },
                    "to": [
                        {
                            "key_code": "f11"
                        }
                    ]
                },
                {
                    "from": {
                        "key_code": "f12"
                    },
                    "to": [
                        {
                            "key_code": "f12"
                        }
                    ]
                }
            ],
            "name": "Default profile",
            "parameters": {
                "delay_milliseconds_before_open_device": 1000
            },
            "selected": true,
            "simple_modifications": [],
            "virtual_hid_keyboard": {
                "country_code": 0,
                "indicate_sticky_modifier_keys_state": true,
                "mouse_key_xy_scale": 100
            }
        }
    ]
}
